!
version 15.1
no service timestamps log datetime msec
no service timestamps debug datetime msec
service password-encryption
security passwords min-length 10
!
hostname r-vit-vl
!
login block-for 120 attempts 3 within 60
!
!
enable secret 5 $1$mERr$Yla7jzpCCVunbBS8is0vc1
!
!
!
!
!
!
no ip cef
ipv6 unicast-routing
!
no ipv6 cef
!
!
!
username vinicius secret 5 $1$mERr$F5V/u2120qbEqnDJcxLe00
!
!
license udi pid CISCO2811/K9 sn FTX1017Z5P3-
!
!
!
!
!
!
!
!
!
ip domain-name vinicius.ludwig.com.br
!
!
spanning-tree mode pvst
!
!
!
!
!
!
interface FastEthernet0/0
 no ip address
 duplex auto
 speed auto
 shutdown
!
interface FastEthernet0/1
 no ip address
 duplex auto
 speed auto
 shutdown
!
interface Serial0/0/0
 description vit-fb
 ip address 200.200.40.229 255.255.255.252
 ipv6 address 2001:DB8:ACAD:28FF::1:1/112
 ipv6 enable
 clock rate 56000
!
interface Serial0/0/1
 description pb-vit
 ip address 200.200.40.226 255.255.255.252
 ipv6 address 2001:DB8:ACAD:28FF::2/112
 ipv6 enable
 clock rate 2000000
!
interface Vlan1
 no ip address
 shutdown
!
ip classless
ip route 200.200.40.0 255.255.255.192 200.200.40.230 
ip route 200.200.40.64 255.255.255.224 200.200.40.230 
ip route 200.200.40.96 255.255.255.224 200.200.40.230 
ip route 200.200.40.232 255.255.255.252 200.200.40.230 
ip route 200.200.40.236 255.255.255.252 200.200.40.230 
ip route 200.200.40.240 255.255.255.252 200.200.40.230 
!
ip flow-export version 9
!
ipv6 route 2001:DB8:ACAD:2800::/64 2001:DB8:ACAD:28FF::1:2
ipv6 route 2001:DB8:ACAD:2801::/64 2001:DB8:ACAD:28FF::1:2
ipv6 route 2001:DB8:ACAD:2802::/64 2001:DB8:ACAD:28FF::1:2
ipv6 route 2001:DB8:ACAD:28FF::2:0/112 2001:DB8:ACAD:28FF::1:2
ipv6 route 2001:DB8:ACAD:28FF::3:0/112 2001:DB8:ACAD:28FF::1:2
ipv6 route 2001:DB8:ACAD:28FF::4:0/112 2001:DB8:ACAD:28FF::1:2
!
ip access-list extended sl_def_acl
 deny tcp any any eq telnet
 deny tcp any any eq www
 deny tcp any any eq 22
 permit tcp any any eq 22
!
no cdp run
!
banner motd ^C
Roteador Vitorino
ATENCAO Acesso Restrito a pessoas autorizadas!
Administrador: Vincius William Pegoraro Ludwig (viniwludwig@gmail.com)
^C
!
!
!
!
!
line con 0
 exec-timeout 5 0
 password 7 08016F41070A48011B050507233E37
 login
!
line aux 0
!
line vty 0 4
 exec-timeout 5 0
 login local
 transport input ssh
line vty 5 15
 exec-timeout 5 0
 login local
 transport input ssh
!
!
!
end